<svg version="1.1" xmlns="http://www.w3.org/2000/svg" viewBox="0 0 722.2722503589839 345" width="2166.8167510769517" height="1035">
  <!-- svg-source:excalidraw -->
  
  <defs>
    <style class="style-fonts">
      @font-face {
        font-family: "Virgil";
        src: url("https://excalidraw.com/Virgil.woff2");
      }
      @font-face {
        font-family: "Cascadia";
        src: url("https://excalidraw.com/Cascadia.woff2");
      }
    </style>
  </defs>
  <g mask="url(#mask-x2xK1yHzD480-8_BTsumr)" stroke-linecap="round"><g transform="translate(11.521529040336588 22.5) rotate(0 349.61459613915537 -0.47565345996267183)"><path d="M-0.04 0.35 C116.85 0.49, 583.92 0.55, 700.75 0.47 M-1.52 -0.51 C115.33 -0.7, 583.17 -1.68, 700.2 -1.41" stroke="#2dcd4d" stroke-width="2" fill="none"></path></g><g transform="translate(11.521529040336588 22.5) rotate(0 349.61459613915537 -0.47565345996267183)"><path d="M0.4 -13.71 C0.5 -9.74, -0.23 -8.23, 0 -1.04 M0.5 -14.69 C-0.63 -10.31, -0.11 -5.25, 0.1 0.38" stroke="#2dcd4d" stroke-width="2" fill="none"></path></g><g transform="translate(11.521529040336588 22.5) rotate(0 349.61459613915537 -0.47565345996267183)"><path d="M0.4 16.29 C0.59 12.73, -0.14 6.7, 0 -1.04 M0.49 15.31 C-0.85 9.85, -0.32 5.06, 0.1 0.38" stroke="#2dcd4d" stroke-width="2" fill="none"></path></g><g transform="translate(11.521529040336588 22.5) rotate(0 349.61459613915537 -0.47565345996267183)"><path d="M700.64 14.53 C700.83 10.97, 700.1 4.94, 700.24 -2.8 M700.73 13.55 C699.4 8.09, 699.92 3.3, 700.33 -1.38" stroke="#2dcd4d" stroke-width="2" fill="none"></path></g><g transform="translate(11.521529040336588 22.5) rotate(0 349.61459613915537 -0.47565345996267183)"><path d="M700.63 -15.47 C700.73 -11.5, 700 -9.99, 700.24 -2.8 M700.73 -16.45 C699.61 -12.07, 700.13 -7.01, 700.33 -1.38" stroke="#2dcd4d" stroke-width="2" fill="none"></path></g></g><mask id="mask-x2xK1yHzD480-8_BTsumr"><rect x="0" y="0" fill="#fff" width="811.5215290403366" height="122.5"></rect><rect x="327.2215298032761" y="10" fill="#000" width="68.5999984741211" height="25" opacity="1"></rect></mask><g transform="translate(327.2215298032761 10) rotate(0 33.914595376215914 12.024346540037328)"><text x="34.29999923706055" y="0" font-family="Virgil, Segoe UI Emoji" font-size="20px" fill="#2dcd4d" text-anchor="middle" style="white-space: pre;" direction="ltr" dominant-baseline="text-before-edge">Physics</text></g><g mask="url(#mask-KtgYFy5zF29me_N9kWnPB)" stroke-linecap="round"><g transform="translate(11.521529040336588 322.5) rotate(0 340.1243187662214 -0.20872146091460309)"><path d="M-0.46 0.58 C112.91 0.6, 567.25 -0.84, 680.71 -1 M1.5 -0.16 C114.72 0.07, 567.1 -0.14, 680.13 0.02" stroke="#2dcd4d" stroke-width="2" fill="none"></path></g><g transform="translate(11.521529040336588 322.5) rotate(0 340.1243187662214 -0.20872146091460309)"><path d="M0.23 -13.54 C-1.87 -8.91, -1.02 -4.39, -0.36 1.78 M-0.38 -13.93 C-1.12 -10.68, -0.73 -8.78, 0.25 0.07" stroke="#2dcd4d" stroke-width="2" fill="none"></path></g><g transform="translate(11.521529040336588 322.5) rotate(0 340.1243187662214 -0.20872146091460309)"><path d="M0.3 16.46 C-1.54 10.76, -0.72 4.96, -0.36 1.78 M-0.31 16.07 C-0.99 13.02, -0.62 8.63, 0.25 0.07" stroke="#2dcd4d" stroke-width="2" fill="none"></path></g><g transform="translate(11.521529040336588 322.5) rotate(0 340.1243187662214 -0.20872146091460309)"><path d="M680.85 15.9 C679.02 10.2, 679.85 4.4, 680.23 1.22 M680.24 15.51 C679.56 12.46, 679.94 8.07, 680.84 -0.49" stroke="#2dcd4d" stroke-width="2" fill="none"></path></g><g transform="translate(11.521529040336588 322.5) rotate(0 340.1243187662214 -0.20872146091460309)"><path d="M680.86 -14.1 C678.75 -9.47, 679.58 -4.95, 680.23 1.22 M680.25 -14.49 C679.5 -11.24, 679.88 -9.34, 680.84 -0.49" stroke="#2dcd4d" stroke-width="2" fill="none"></path></g></g><mask id="mask-KtgYFy5zF29me_N9kWnPB"><rect x="0" y="0" fill="#fff" width="791.5215290403366" height="422.5"></rect><rect x="326.5965298032761" y="310" fill="#000" width="49.849998474121094" height="25" opacity="1"></rect></mask><g transform="translate(326.5965298032761 310) rotate(0 25.04931800328194 12.291278539085397)"><text x="24.924999237060547" y="0" font-family="Virgil, Segoe UI Emoji" font-size="20px" fill="#2dcd4d" text-anchor="middle" style="white-space: pre;" direction="ltr" dominant-baseline="text-before-edge">Math</text></g><g stroke-linecap="round"><g transform="translate(351.88355831691996 303.75864861151206) rotate(0 0.3698913488586868 -60.13692928304897)"><path d="M0.72 -1.07 C0.84 -20.83, 1.16 -99.66, 1.09 -119.43 M-0.36 0.98 C-0.33 -19.06, 0.7 -101.39, 0.72 -121.26" stroke="#2dcd4d" stroke-width="2" fill="none"></path></g><g transform="translate(351.88355831691996 303.75864861151206) rotate(0 0.3698913488586868 -60.13692928304897)"><path d="M8.99 -91.17 C8.61 -101.66, 4.82 -111.1, 0.52 -122.73 M9.94 -92.49 C8.53 -98.95, 5.5 -107.02, 0.91 -121.27" stroke="#2dcd4d" stroke-width="2" fill="none"></path></g><g transform="translate(351.88355831691996 303.75864861151206) rotate(0 0.3698913488586868 -60.13692928304897)"><path d="M-11.53 -91.32 C-5.15 -101.88, -2.18 -111.28, 0.52 -122.73 M-10.59 -92.64 C-6.97 -99.1, -4.99 -107.14, 0.91 -121.27" stroke="#2dcd4d" stroke-width="2" fill="none"></path></g></g><mask></mask><g stroke-linecap="round"><g transform="translate(351.843786541596 41.855664969794475) rotate(0 0.6923784729227691 61.05851653559131)"><path d="M-0.32 1.11 C-0.37 21.15, 0.18 100.33, 0.31 120.18 M1.71 0.64 C1.51 20.85, -0.04 101.36, -0.31 121.47" stroke="#2dcd4d" stroke-width="2" fill="none"></path></g><g transform="translate(351.843786541596 41.855664969794475) rotate(0 0.6923784729227691 61.05851653559131)"><path d="M-8.25 94.17 C-7.49 104.28, -4.01 111.58, 1.42 120.15 M-9.73 93.74 C-6.39 104.06, -1.71 114.66, 0.55 121.21" stroke="#2dcd4d" stroke-width="2" fill="none"></path></g><g transform="translate(351.843786541596 41.855664969794475) rotate(0 0.6923784729227691 61.05851653559131)"><path d="M12.27 94.51 C5.91 104.44, 2.25 111.63, 1.42 120.15 M10.78 94.08 C6.05 104.28, 2.65 114.75, 0.55 121.21" stroke="#2dcd4d" stroke-width="2" fill="none"></path></g></g><mask></mask></svg>